<?xml version="1.0" encoding="utf-8"?>
<!DOCTYPE TS>
<TS version="2.1">
<context>
    <name></name>
    <message id="lollipop">
        <location filename="main.cpp" line="43"/>
        <location filename="main.cpp" line="48"/>
        <location filename="main.cpp" line="67"/>
        <source>this is the source text</source>
        <extracomment>commented
----------
even more commented</extracomment>
        <translation type="unfinished"></translation>
        <extra-meta>so-meta</extra-meta>
    </message>
</context>
<context>
    <name>QObject</name>
    <message>
        <location filename="main.cpp" line="59"/>
        <source>another message</source>
        <comment>here with a lot of noise in the comment so it is long enough</comment>
        <translation type="unfinished"></translation>
        <extra-meta>so-meta</extra-meta>
    </message>
</context>
<context>
    <name>context</name>
    <message>
        <location filename="finddialog.cpp" line="34"/>
        <location filename="finddialog.cpp" line="39"/>
        <location filename="main.cpp" line="38"/>
        <source>just a message</source>
        <extracomment>This is one comment
----------
This is a comment, too.</extracomment>
        <translation type="unfinished"></translation>
    </message>
</context>
</TS>
