﻿========================================================================
    ACTIVE TEMPLATE LIBRARY：[!output PROJECT_NAME] 專案概觀
========================================================================

AppWizard 已為您建立了這個 [!output PROJECT_NAME] 專案，做為您撰寫動態連結程式庫 (DLL) 的起點。

這個檔案包含一份摘要，簡要說明構成您的專案的所有檔案。

[!output PROJECT_NAME].vcxproj
    這是使用應用程式精靈所產生之 VC++ 專案的主要專案檔。
    它含有產生該檔案之 Visual C++ 的版本資訊，
    以及有關使用應用程式精靈所選取之平台、組態和專案功能的資訊。

[!output PROJECT_NAME].vcxproj.filters
    這是使用應用程式精靈所產生之 VC++ 專案的篩選檔。
    檔案中含有您專案中檔案與篩選器之間關聯的相關資訊。
    這項關聯是用於 IDE 中以顯示特定節點下指具有類似
    副檔名之檔案的群組，(例如，".cpp" 檔案是與 "Source Files" 篩選器關聯)。

[!output SAFE_IDL_NAME].idl
    這個檔案會包含您專案中所定義之型別程式庫、介面和 co-classes 的 IDL 定義。
    這個檔案將會由 MIDL 編譯器處理以產生：
        C++ 介面定義和 GUID 宣告([!output SAFE_IDL_NAME].h)
        GUID 定義([!output SAFE_IDL_NAME]_i.c)
        型別程式庫([!output SAFE_IDL_NAME].tlb)
        封送處理程式碼([!output SAFE_IDL_NAME]_p.c 及dlldata.c)

[!output SAFE_IDL_NAME].h
    這個檔案含有在 [!output SAFE_IDL_NAME].idl 中所定義項目的
    C++ 介面定義和 GUID 宣告。它將會由 MIDL 在編譯期間重新產生。

[!output PROJECT_NAME].cpp
    這個檔案含有您 DLL 匯出的物件對應和實作。

[!output PROJECT_NAME].rc
    這是程式所用的所有 Microsoft Windows 資源的列表。

[!if DLL_APP]
[!output PROJECT_NAME].def
    這個模組定義檔為連結器提供了有關您 DLL 所需之匯出的資訊。它包含下列項目的匯出：
        DllGetClassObject
        DllCanUnloadNow
        DllRegisterServer
        DllUnregisterServer
        DllInstall
[!endif]

/////////////////////////////////////////////////////////////////////////////
其他標準檔案：

StdAfx.h, StdAfx.cpp
    這些檔案是用來建置名為 [!output PROJECT_NAME].pch 的先行編譯標頭 (PCH) 檔，
    以及名為 StdAfx.obj 的先行編譯型別檔。

Resource.h
    這是定義資源 ID 的標準標頭檔。

/////////////////////////////////////////////////////////////////////////////
其他注意事項:

	[MFC 支援] 選項會將 MFC 程式庫建置到您的基本架構應用程式中，
	讓您能夠使用 MFC 的類別、物件和函式。
/////////////////////////////////////////////////////////////////////////////
