<?xml version="1.0" encoding="utf-8"?>
<!DOCTYPE TS>
<TS version="2.1">
<context>
    <name>subsub2</name>
    <message>
        <location filename="subdir2/subsub2/main.cpp" line="37"/>
        <source>minimal test</source>
        <translation type="unfinished"></translation>
    </message>
</context>
</TS>
